%YAML 1.1
%TAG !u! tag:unity3d.com,2011:
--- !u!29 &1
OcclusionCullingSettings:
  m_ObjectHideFlags: 0
  serializedVersion: 2
  m_OcclusionBakeSettings:
    smallestOccluder: 5
    smallestHole: 0.25
    backfaceThreshold: 100
  m_SceneGUID: 00000000000000000000000000000000
  m_OcclusionCullingData: {fileID: 0}
--- !u!104 &2
RenderSettings:
  m_ObjectHideFlags: 0
  serializedVersion: 9
  m_Fog: 0
  m_FogColor: {r: 0.5, g: 0.5, b: 0.5, a: 1}
  m_FogMode: 3
  m_FogDensity: 0.01
  m_LinearFogStart: 0
  m_LinearFogEnd: 300
  m_AmbientSkyColor: {r: 0.212, g: 0.227, b: 0.259, a: 1}
  m_AmbientEquatorColor: {r: 0.114, g: 0.125, b: 0.133, a: 1}
  m_AmbientGroundColor: {r: 0.047, g: 0.043, b: 0.035, a: 1}
  m_AmbientIntensity: 1
  m_AmbientMode: 3
  m_SubtractiveShadowColor: {r: 0.42, g: 0.478, b: 0.627, a: 1}
  m_SkyboxMaterial: {fileID: 0}
  m_HaloStrength: 0.5
  m_FlareStrength: 1
  m_FlareFadeSpeed: 3
  m_HaloTexture: {fileID: 0}
  m_SpotCookie: {fileID: 10001, guid: 0000000000000000e000000000000000, type: 0}
  m_DefaultReflectionMode: 0
  m_DefaultReflectionResolution: 128
  m_ReflectionBounces: 1
  m_ReflectionIntensity: 1
  m_CustomReflection: {fileID: 0}
  m_Sun: {fileID: 0}
  m_IndirectSpecularColor: {r: 0, g: 0, b: 0, a: 1}
  m_UseRadianceAmbientProbe: 0
--- !u!157 &3
LightmapSettings:
  m_ObjectHideFlags: 0
  serializedVersion: 11
  m_GIWorkflowMode: 1
  m_GISettings:
    serializedVersion: 2
    m_BounceScale: 1
    m_IndirectOutputScale: 1
    m_AlbedoBoost: 1
    m_TemporalCoherenceThreshold: 1
    m_EnvironmentLightingMode: 0
    m_EnableBakedLightmaps: 0
    m_EnableRealtimeLightmaps: 0
  m_LightmapEditorSettings:
    serializedVersion: 10
    m_Resolution: 2
    m_BakeResolution: 40
    m_AtlasSize: 1024
    m_AO: 0
    m_AOMaxDistance: 1
    m_CompAOExponent: 1
    m_CompAOExponentDirect: 0
    m_Padding: 2
    m_LightmapParameters: {fileID: 0}
    m_LightmapsBakeMode: 1
    m_TextureCompression: 1
    m_FinalGather: 0
    m_FinalGatherFiltering: 1
    m_FinalGatherRayCount: 256
    m_ReflectionCompression: 2
    m_MixedBakeMode: 2
    m_BakeBackend: 0
    m_PVRSampling: 1
    m_PVRDirectSampleCount: 32
    m_PVRSampleCount: 500
    m_PVRBounces: 2
    m_PVRFilterTypeDirect: 0
    m_PVRFilterTypeIndirect: 0
    m_PVRFilterTypeAO: 0
    m_PVRFilteringMode: 1
    m_PVRCulling: 1
    m_PVRFilteringGaussRadiusDirect: 1
    m_PVRFilteringGaussRadiusIndirect: 5
    m_PVRFilteringGaussRadiusAO: 2
    m_PVRFilteringAtrousPositionSigmaDirect: 0.5
    m_PVRFilteringAtrousPositionSigmaIndirect: 2
    m_PVRFilteringAtrousPositionSigmaAO: 1
    m_ShowResolutionOverlay: 1
  m_LightingDataAsset: {fileID: 0}
  m_UseShadowmask: 1
--- !u!196 &4
NavMeshSettings:
  serializedVersion: 2
  m_ObjectHideFlags: 0
  m_BuildSettings:
    serializedVersion: 2
    agentTypeID: 0
    agentRadius: 0.5
    agentHeight: 2
    agentSlope: 45
    agentClimb: 0.4
    ledgeDropHeight: 0
    maxJumpAcrossDistance: 0
    minRegionArea: 2
    manualCellSize: 0
    cellSize: 0.16666667
    manualTileSize: 0
    tileSize: 256
    accuratePlacement: 0
    debug:
      m_Flags: 0
  m_NavMeshData: {fileID: 0}
--- !u!1001 &137195954
Prefab:
  m_ObjectHideFlags: 0
  serializedVersion: 2
  m_Modification:
    m_TransformParent: {fileID: 0}
    m_Modifications:
    - target: {fileID: 114694863804189896, guid: 43a7556675d30b84dba7955155b18585,
        type: 2}
      propertyPath: slots.Array.size
      value: 5
      objectReference: {fileID: 0}
    - target: {fileID: 224599250829246122, guid: 43a7556675d30b84dba7955155b18585,
        type: 2}
      propertyPath: m_LocalPosition.x
      value: 0
      objectReference: {fileID: 0}
    - target: {fileID: 224599250829246122, guid: 43a7556675d30b84dba7955155b18585,
        type: 2}
      propertyPath: m_LocalPosition.y
      value: 0
      objectReference: {fileID: 0}
    - target: {fileID: 224599250829246122, guid: 43a7556675d30b84dba7955155b18585,
        type: 2}
      propertyPath: m_LocalPosition.z
      value: 0
      objectReference: {fileID: 0}
    - target: {fileID: 224599250829246122, guid: 43a7556675d30b84dba7955155b18585,
        type: 2}
      propertyPath: m_LocalRotation.x
      value: 0
      objectReference: {fileID: 0}
    - target: {fileID: 224599250829246122, guid: 43a7556675d30b84dba7955155b18585,
        type: 2}
      propertyPath: m_LocalRotation.y
      value: 0
      objectReference: {fileID: 0}
    - target: {fileID: 224599250829246122, guid: 43a7556675d30b84dba7955155b18585,
        type: 2}
      propertyPath: m_LocalRotation.z
      value: 0
      objectReference: {fileID: 0}
    - target: {fileID: 224599250829246122, guid: 43a7556675d30b84dba7955155b18585,
        type: 2}
      propertyPath: m_LocalRotation.w
      value: 1
      objectReference: {fileID: 0}
    - target: {fileID: 224599250829246122, guid: 43a7556675d30b84dba7955155b18585,
        type: 2}
      propertyPath: m_RootOrder
      value: 1
      objectReference: {fileID: 0}
    - target: {fileID: 224599250829246122, guid: 43a7556675d30b84dba7955155b18585,
        type: 2}
      propertyPath: m_AnchoredPosition.x
      value: 0
      objectReference: {fileID: 0}
    - target: {fileID: 224599250829246122, guid: 43a7556675d30b84dba7955155b18585,
        type: 2}
      propertyPath: m_AnchoredPosition.y
      value: 0
      objectReference: {fileID: 0}
    - target: {fileID: 224599250829246122, guid: 43a7556675d30b84dba7955155b18585,
        type: 2}
      propertyPath: m_SizeDelta.x
      value: 0
      objectReference: {fileID: 0}
    - target: {fileID: 224599250829246122, guid: 43a7556675d30b84dba7955155b18585,
        type: 2}
      propertyPath: m_SizeDelta.y
      value: 0
      objectReference: {fileID: 0}
    - target: {fileID: 224599250829246122, guid: 43a7556675d30b84dba7955155b18585,
        type: 2}
      propertyPath: m_AnchorMin.x
      value: 0
      objectReference: {fileID: 0}
    - target: {fileID: 224599250829246122, guid: 43a7556675d30b84dba7955155b18585,
        type: 2}
      propertyPath: m_AnchorMin.y
      value: 0
      objectReference: {fileID: 0}
    - target: {fileID: 224599250829246122, guid: 43a7556675d30b84dba7955155b18585,
        type: 2}
      propertyPath: m_AnchorMax.x
      value: 0
      objectReference: {fileID: 0}
    - target: {fileID: 224599250829246122, guid: 43a7556675d30b84dba7955155b18585,
        type: 2}
      propertyPath: m_AnchorMax.y
      value: 0
      objectReference: {fileID: 0}
    - target: {fileID: 224599250829246122, guid: 43a7556675d30b84dba7955155b18585,
        type: 2}
      propertyPath: m_Pivot.x
      value: 0
      objectReference: {fileID: 0}
    - target: {fileID: 224599250829246122, guid: 43a7556675d30b84dba7955155b18585,
        type: 2}
      propertyPath: m_Pivot.y
      value: 0
      objectReference: {fileID: 0}
    - target: {fileID: 114248070596588224, guid: 43a7556675d30b84dba7955155b18585,
        type: 2}
      propertyPath: m_havePropertiesChanged
      value: 1
      objectReference: {fileID: 0}
    - target: {fileID: 114248070596588224, guid: 43a7556675d30b84dba7955155b18585,
        type: 2}
      propertyPath: m_isInputParsingRequired
      value: 1
      objectReference: {fileID: 0}
    - target: {fileID: 114956396481256756, guid: 43a7556675d30b84dba7955155b18585,
        type: 2}
      propertyPath: m_havePropertiesChanged
      value: 1
      objectReference: {fileID: 0}
    - target: {fileID: 114956396481256756, guid: 43a7556675d30b84dba7955155b18585,
        type: 2}
      propertyPath: m_isInputParsingRequired
      value: 1
      objectReference: {fileID: 0}
    - target: {fileID: 114660969056691584, guid: 43a7556675d30b84dba7955155b18585,
        type: 2}
      propertyPath: m_havePropertiesChanged
      value: 1
      objectReference: {fileID: 0}
    - target: {fileID: 114660969056691584, guid: 43a7556675d30b84dba7955155b18585,
        type: 2}
      propertyPath: m_isInputParsingRequired
      value: 1
      objectReference: {fileID: 0}
    - target: {fileID: 114870024361050550, guid: 43a7556675d30b84dba7955155b18585,
        type: 2}
      propertyPath: m_havePropertiesChanged
      value: 1
      objectReference: {fileID: 0}
    - target: {fileID: 114870024361050550, guid: 43a7556675d30b84dba7955155b18585,
        type: 2}
      propertyPath: m_isInputParsingRequired
      value: 1
      objectReference: {fileID: 0}
    - target: {fileID: 114202522676193894, guid: 43a7556675d30b84dba7955155b18585,
        type: 2}
      propertyPath: m_havePropertiesChanged
      value: 1
      objectReference: {fileID: 0}
    - target: {fileID: 114202522676193894, guid: 43a7556675d30b84dba7955155b18585,
        type: 2}
      propertyPath: m_isInputParsingRequired
      value: 1
      objectReference: {fileID: 0}
    - target: {fileID: 114914177763230622, guid: 43a7556675d30b84dba7955155b18585,
        type: 2}
      propertyPath: m_havePropertiesChanged
      value: 1
      objectReference: {fileID: 0}
    - target: {fileID: 114914177763230622, guid: 43a7556675d30b84dba7955155b18585,
        type: 2}
      propertyPath: m_isInputParsingRequired
      value: 1
      objectReference: {fileID: 0}
    - target: {fileID: 114539849254124372, guid: 43a7556675d30b84dba7955155b18585,
        type: 2}
      propertyPath: m_havePropertiesChanged
      value: 1
      objectReference: {fileID: 0}
    - target: {fileID: 114539849254124372, guid: 43a7556675d30b84dba7955155b18585,
        type: 2}
      propertyPath: m_isInputParsingRequired
      value: 1
      objectReference: {fileID: 0}
    - target: {fileID: 114694863804189896, guid: 43a7556675d30b84dba7955155b18585,
        type: 2}
      propertyPath: slots.Array.data[0]
      value: 
      objectReference: {fileID: 2029982226}
    - target: {fileID: 114694863804189896, guid: 43a7556675d30b84dba7955155b18585,
        type: 2}
      propertyPath: slots.Array.data[1]
      value: 
      objectReference: {fileID: 1367730393}
    - target: {fileID: 114694863804189896, guid: 43a7556675d30b84dba7955155b18585,
        type: 2}
      propertyPath: slots.Array.data[2]
      value: 
      objectReference: {fileID: 1335660571}
    - target: {fileID: 114694863804189896, guid: 43a7556675d30b84dba7955155b18585,
        type: 2}
      propertyPath: slots.Array.data[3]
      value: 
      objectReference: {fileID: 189158580}
    - target: {fileID: 114694863804189896, guid: 43a7556675d30b84dba7955155b18585,
        type: 2}
      propertyPath: slots.Array.data[4]
      value: 
      objectReference: {fileID: 1581279361}
    m_RemovedComponents: []
  m_SourcePrefab: {fileID: 100100000, guid: 43a7556675d30b84dba7955155b18585, type: 2}
  m_IsPrefabAsset: 0
--- !u!114 &189158580 stripped
MonoBehaviour:
  m_CorrespondingSourceObject: {fileID: 114831243799860530, guid: 43a7556675d30b84dba7955155b18585,
    type: 2}
  m_PrefabInternal: {fileID: 137195954}
  m_Script: {fileID: 11500000, guid: 160a0f8a138b76c41b55d36cbefb060b, type: 3}
--- !u!1 &519420028
GameObject:
  m_ObjectHideFlags: 0
  m_CorrespondingSourceObject: {fileID: 0}
  m_PrefabInternal: {fileID: 0}
  serializedVersion: 6
  m_Component:
  - component: {fileID: 519420032}
  - component: {fileID: 519420031}
  - component: {fileID: 519420029}
  m_Layer: 0
  m_Name: Main Camera
  m_TagString: MainCamera
  m_Icon: {fileID: 0}
  m_NavMeshLayer: 0
  m_StaticEditorFlags: 0
  m_IsActive: 1
--- !u!81 &519420029
AudioListener:
  m_ObjectHideFlags: 0
  m_CorrespondingSourceObject: {fileID: 0}
  m_PrefabInternal: {fileID: 0}
  m_GameObject: {fileID: 519420028}
  m_Enabled: 1
--- !u!20 &519420031
Camera:
  m_ObjectHideFlags: 0
  m_CorrespondingSourceObject: {fileID: 0}
  m_PrefabInternal: {fileID: 0}
  m_GameObject: {fileID: 519420028}
  m_Enabled: 1
  serializedVersion: 2
  m_ClearFlags: 2
  m_BackGroundColor: {r: 0.19215687, g: 0.3019608, b: 0.4745098, a: 0}
  m_projectionMatrixMode: 1
  m_SensorSize: {x: 36, y: 24}
  m_LensShift: {x: 0, y: 0}
  m_FocalLength: 50
  m_NormalizedViewPortRect:
    serializedVersion: 2
    x: 0
    y: 0
    width: 1
    height: 1
  near clip plane: 0.3
  far clip plane: 1000
  field of view: 60
  orthographic: 1
  orthographic size: 5
  m_Depth: -1
  m_CullingMask:
    serializedVersion: 2
    m_Bits: 4294967295
  m_RenderingPath: -1
  m_TargetTexture: {fileID: 0}
  m_TargetDisplay: 0
  m_TargetEye: 0
  m_HDR: 1
  m_AllowMSAA: 0
  m_AllowDynamicResolution: 0
  m_ForceIntoRT: 0
  m_OcclusionCulling: 0
  m_StereoConvergence: 10
  m_StereoSeparation: 0.022
--- !u!4 &519420032
Transform:
  m_ObjectHideFlags: 0
  m_CorrespondingSourceObject: {fileID: 0}
  m_PrefabInternal: {fileID: 0}
  m_GameObject: {fileID: 519420028}
  m_LocalRotation: {x: 0, y: 0, z: 0, w: 1}
  m_LocalPosition: {x: 0, y: 0, z: -10}
  m_LocalScale: {x: 1, y: 1, z: 1}
  m_Children: []
  m_Father: {fileID: 0}
  m_RootOrder: 0
  m_LocalEulerAnglesHint: {x: 0, y: 0, z: 0}
--- !u!1 &735388254
GameObject:
  m_ObjectHideFlags: 0
  m_CorrespondingSourceObject: {fileID: 0}
  m_PrefabInternal: {fileID: 0}
  serializedVersion: 6
  m_Component:
  - component: {fileID: 735388257}
  - component: {fileID: 735388256}
  - component: {fileID: 735388255}
  m_Layer: 0
  m_Name: EventSystem
  m_TagString: Untagged
  m_Icon: {fileID: 0}
  m_NavMeshLayer: 0
  m_StaticEditorFlags: 0
  m_IsActive: 1
--- !u!114 &735388255
MonoBehaviour:
  m_ObjectHideFlags: 0
  m_CorrespondingSourceObject: {fileID: 0}
  m_PrefabInternal: {fileID: 0}
  m_GameObject: {fileID: 735388254}
  m_Enabled: 1
  m_EditorHideFlags: 0
  m_Script: {fileID: 1077351063, guid: f70555f144d8491a825f0804e09c671c, type: 3}
  m_Name: 
  m_EditorClassIdentifier: 
  m_HorizontalAxis: Horizontal
  m_VerticalAxis: Vertical
  m_SubmitButton: Submit
  m_CancelButton: Cancel
  m_InputActionsPerSecond: 10
  m_RepeatDelay: 0.5
  m_ForceModuleActive: 0
--- !u!114 &735388256
MonoBehaviour:
  m_ObjectHideFlags: 0
  m_CorrespondingSourceObject: {fileID: 0}
  m_PrefabInternal: {fileID: 0}
  m_GameObject: {fileID: 735388254}
  m_Enabled: 1
  m_EditorHideFlags: 0
  m_Script: {fileID: -619905303, guid: f70555f144d8491a825f0804e09c671c, type: 3}
  m_Name: 
  m_EditorClassIdentifier: 
  m_FirstSelected: {fileID: 0}
  m_sendNavigationEvents: 1
  m_DragThreshold: 10
--- !u!4 &735388257
Transform:
  m_ObjectHideFlags: 0
  m_CorrespondingSourceObject: {fileID: 0}
  m_PrefabInternal: {fileID: 0}
  m_GameObject: {fileID: 735388254}
  m_LocalRotation: {x: 0, y: 0, z: 0, w: 1}
  m_LocalPosition: {x: 0, y: 0, z: 0}
  m_LocalScale: {x: 1, y: 1, z: 1}
  m_Children: []
  m_Father: {fileID: 0}
  m_RootOrder: 2
  m_LocalEulerAnglesHint: {x: 0, y: 0, z: 0}
--- !u!114 &1335660571 stripped
MonoBehaviour:
  m_CorrespondingSourceObject: {fileID: 114159394347520526, guid: 43a7556675d30b84dba7955155b18585,
    type: 2}
  m_PrefabInternal: {fileID: 137195954}
  m_Script: {fileID: 11500000, guid: 160a0f8a138b76c41b55d36cbefb060b, type: 3}
--- !u!114 &1367730393 stripped
MonoBehaviour:
  m_CorrespondingSourceObject: {fileID: 114225363533721326, guid: 43a7556675d30b84dba7955155b18585,
    type: 2}
  m_PrefabInternal: {fileID: 137195954}
  m_Script: {fileID: 11500000, guid: 160a0f8a138b76c41b55d36cbefb060b, type: 3}
--- !u!114 &1581279361 stripped
MonoBehaviour:
  m_CorrespondingSourceObject: {fileID: 114711239617892142, guid: 43a7556675d30b84dba7955155b18585,
    type: 2}
  m_PrefabInternal: {fileID: 137195954}
  m_Script: {fileID: 11500000, guid: 160a0f8a138b76c41b55d36cbefb060b, type: 3}
--- !u!1 &1833322302
GameObject:
  m_ObjectHideFlags: 0
  m_CorrespondingSourceObject: {fileID: 0}
  m_PrefabInternal: {fileID: 0}
  serializedVersion: 6
  m_Component:
  - component: {fileID: 1833322304}
  - component: {fileID: 1833322303}
  - component: {fileID: 1833322305}
  m_Layer: 0
  m_Name: GameManager
  m_TagString: Untagged
  m_Icon: {fileID: 0}
  m_NavMeshLayer: 0
  m_StaticEditorFlags: 0
  m_IsActive: 1
--- !u!114 &1833322303
MonoBehaviour:
  m_ObjectHideFlags: 0
  m_CorrespondingSourceObject: {fileID: 0}
  m_PrefabInternal: {fileID: 0}
  m_GameObject: {fileID: 1833322302}
  m_Enabled: 1
  m_EditorHideFlags: 0
  m_Script: {fileID: 11500000, guid: 83a48820ff54a6d4b92f679e1ea71449, type: 3}
  m_Name: 
  m_EditorClassIdentifier: 
  HP: 20
  MP: 4
  ATK: 5
  DEF: 22
  MND: 21
  WILL: 4
  LCK: 54
  SPD: 2
--- !u!4 &1833322304
Transform:
  m_ObjectHideFlags: 0
  m_CorrespondingSourceObject: {fileID: 0}
  m_PrefabInternal: {fileID: 0}
  m_GameObject: {fileID: 1833322302}
  m_LocalRotation: {x: 0, y: 0, z: 0, w: 1}
  m_LocalPosition: {x: 0, y: 0, z: 0}
  m_LocalScale: {x: 1, y: 1, z: 1}
  m_Children: []
  m_Father: {fileID: 0}
  m_RootOrder: 3
  m_LocalEulerAnglesHint: {x: 0, y: 0, z: 0}
--- !u!114 &1833322305
MonoBehaviour:
  m_ObjectHideFlags: 0
  m_CorrespondingSourceObject: {fileID: 0}
  m_PrefabInternal: {fileID: 0}
  m_GameObject: {fileID: 1833322302}
  m_Enabled: 1
  m_EditorHideFlags: 0
  m_Script: {fileID: 11500000, guid: 53aaf155e9d6b8e47b7ba384ba1b9e7b, type: 3}
  m_Name: 
  m_EditorClassIdentifier: 
  inventory:
  - {fileID: 11400000, guid: 19b2047fddcc3624586a1e5e4c3ec58f, type: 2}
  - {fileID: 11400000, guid: ebce7bb53f92a2c40abccbf6443fdf18, type: 2}
  - {fileID: 11400000, guid: 45564eec707645848a655ef454ae0bcb, type: 2}
  - {fileID: 11400000, guid: 9786e5a1e3e6a364491f0b1c1eb193e5, type: 2}
  - {fileID: 11400000, guid: f4187a4e03c3cfc409ab4b1803c45b26, type: 2}
  - {fileID: 11400000, guid: 19b2047fddcc3624586a1e5e4c3ec58f, type: 2}
  - {fileID: 11400000, guid: 19b2047fddcc3624586a1e5e4c3ec58f, type: 2}
  - {fileID: 11400000, guid: 19b2047fddcc3624586a1e5e4c3ec58f, type: 2}
  - {fileID: 11400000, guid: 19b2047fddcc3624586a1e5e4c3ec58f, type: 2}
  - {fileID: 11400000, guid: ebce7bb53f92a2c40abccbf6443fdf18, type: 2}
  - {fileID: 11400000, guid: f4187a4e03c3cfc409ab4b1803c45b26, type: 2}
  - {fileID: 11400000, guid: 9786e5a1e3e6a364491f0b1c1eb193e5, type: 2}
--- !u!114 &2029982226 stripped
MonoBehaviour:
  m_CorrespondingSourceObject: {fileID: 114785256742528776, guid: 43a7556675d30b84dba7955155b18585,
    type: 2}
  m_PrefabInternal: {fileID: 137195954}
  m_Script: {fileID: 11500000, guid: 160a0f8a138b76c41b55d36cbefb060b, type: 3}
